<?xml version="1.0" encoding="windows-1252"?>
<!-- Generator: Adobe Illustrator 16.0.0, SVG Export Plug-In . SVG Version: 6.00 Build 0)  -->
<svg width="18" height="18" viewBox="0 0 16 16" fill="none" xmlns="http://www.w3.org/2000/svg"><path d="M0.929993 15.0702L15.07 0.930176M0.929993 0.930176L15.07 15.0702L0.929993 0.930176Z" stroke="#181818" stroke-miterlimit="10"/></svg>
